/Users/hsu022210/Desktop/usf_coding_project/cs652_programming_languages/smalltalk-compiler-hsu022210/src/smalltalk/compiler/SetScope.java
/Users/hsu022210/Desktop/usf_coding_project/cs652_programming_languages/smalltalk-compiler-hsu022210/src/smalltalk/compiler/Compiler.java
/Users/hsu022210/Desktop/usf_coding_project/cs652_programming_languages/smalltalk-compiler-hsu022210/target/generated-sources/antlr4/smalltalk/compiler/SmalltalkLexer.java
/Users/hsu022210/Desktop/usf_coding_project/cs652_programming_languages/smalltalk-compiler-hsu022210/target/generated-sources/antlr4/smalltalk/compiler/SmalltalkBaseListener.java
/Users/hsu022210/Desktop/usf_coding_project/cs652_programming_languages/smalltalk-compiler-hsu022210/src/smalltalk/compiler/Code.java
/Users/hsu022210/Desktop/usf_coding_project/cs652_programming_languages/smalltalk-compiler-hsu022210/src/smalltalk/compiler/symbols/STSymbolTable.java
/Users/hsu022210/Desktop/usf_coding_project/cs652_programming_languages/smalltalk-compiler-hsu022210/src/smalltalk/compiler/Bytecode.java
/Users/hsu022210/Desktop/usf_coding_project/cs652_programming_languages/smalltalk-compiler-hsu022210/src/smalltalk/compiler/symbols/STPrimitiveMethod.java
/Users/hsu022210/Desktop/usf_coding_project/cs652_programming_languages/smalltalk-compiler-hsu022210/target/generated-sources/antlr4/smalltalk/compiler/SmalltalkListener.java
/Users/hsu022210/Desktop/usf_coding_project/cs652_programming_languages/smalltalk-compiler-hsu022210/src/smalltalk/compiler/ResolveSymbols.java
/Users/hsu022210/Desktop/usf_coding_project/cs652_programming_languages/smalltalk-compiler-hsu022210/src/smalltalk/compiler/STC.java
/Users/hsu022210/Desktop/usf_coding_project/cs652_programming_languages/smalltalk-compiler-hsu022210/src/smalltalk/compiler/symbols/STClass.java
/Users/hsu022210/Desktop/usf_coding_project/cs652_programming_languages/smalltalk-compiler-hsu022210/src/smalltalk/compiler/misc/Utils.java
/Users/hsu022210/Desktop/usf_coding_project/cs652_programming_languages/smalltalk-compiler-hsu022210/src/smalltalk/compiler/DefineSymbols.java
/Users/hsu022210/Desktop/usf_coding_project/cs652_programming_languages/smalltalk-compiler-hsu022210/target/generated-sources/antlr4/smalltalk/compiler/SmalltalkBaseVisitor.java
/Users/hsu022210/Desktop/usf_coding_project/cs652_programming_languages/smalltalk-compiler-hsu022210/src/smalltalk/compiler/symbols/STArg.java
/Users/hsu022210/Desktop/usf_coding_project/cs652_programming_languages/smalltalk-compiler-hsu022210/src/smalltalk/compiler/symbols/STVariable.java
/Users/hsu022210/Desktop/usf_coding_project/cs652_programming_languages/smalltalk-compiler-hsu022210/src/smalltalk/compiler/symbols/STBlock.java
/Users/hsu022210/Desktop/usf_coding_project/cs652_programming_languages/smalltalk-compiler-hsu022210/src/smalltalk/compiler/misc/ByteList.java
/Users/hsu022210/Desktop/usf_coding_project/cs652_programming_languages/smalltalk-compiler-hsu022210/src/smalltalk/compiler/symbols/STField.java
/Users/hsu022210/Desktop/usf_coding_project/cs652_programming_languages/smalltalk-compiler-hsu022210/src/smalltalk/compiler/symbols/STCompiledBlock.java
/Users/hsu022210/Desktop/usf_coding_project/cs652_programming_languages/smalltalk-compiler-hsu022210/target/generated-sources/antlr4/smalltalk/compiler/SmalltalkVisitor.java
/Users/hsu022210/Desktop/usf_coding_project/cs652_programming_languages/smalltalk-compiler-hsu022210/target/generated-sources/antlr4/smalltalk/compiler/SmalltalkParser.java
/Users/hsu022210/Desktop/usf_coding_project/cs652_programming_languages/smalltalk-compiler-hsu022210/src/smalltalk/compiler/symbols/STMethod.java
/Users/hsu022210/Desktop/usf_coding_project/cs652_programming_languages/smalltalk-compiler-hsu022210/src/smalltalk/compiler/CodeGenerator.java
